<?xml version="1.0" encoding="UTF-8"?>
<svg width="36px" height="20px" viewBox="0 0 36 20" version="1.1" xmlns="http://www.w3.org/2000/svg" xmlns:xlink="http://www.w3.org/1999/xlink">
    <!-- Generator: Sketch 60 (88103) - https://sketch.com -->
    <title>ic_arrow_right copy</title>
    <desc>Created with Sketch.</desc>
    <defs>
        <path d="M11.5351339,2.90294569 L7.01764564,7.84004964 C7.01764564,7.84004964 6.44886577,8.44767496 5.31130602,9.6629256 L7.01764564,11.4946114 L11.4652705,16.3884162 C12.0987918,17.0854915 12.0772852,18.147707 11.4160537,18.819244 C10.8120951,19.4326156 9.81871138,19.4466048 9.19726915,18.8504897 C9.17053075,18.8248411 9.1447271,18.7982599 9.11990734,18.7707967 L0.888682997,9.6629256 L9.19125213,0.516423126 C9.77080015,-0.12203436 10.7649989,-0.175891429 11.4118571,0.396129994 C11.4392831,0.420383029 11.4658376,0.445579391 11.4914714,0.471672482 C12.1523058,1.14434643 12.1714001,2.20757867 11.5351339,2.90294569 Z" id="path-1"></path>
        <path d="M7.12896265,7.84004964 C11.1447079,7.8191347 31.2939652,7.8191347 33.7117284,7.8191347 C36.1294915,7.8191347 36.1294915,11.4736965 33.7117284,11.4736965 C20.216057,11.4876398 11.3551351,11.4946114 7.12896265,11.4946114 C4.83555774,11.4736965 4.83555774,7.84004964 7.12896265,7.84004964 Z" id="path-3"></path>
    </defs>
    <g id="Trash" stroke="none" stroke-width="1" fill="none" fill-rule="evenodd">
        <g id="Logo-Copy-12" transform="translate(-80.000000, -87.000000)">
            <g id="ic_arrow_right-copy" transform="translate(110.000000, 97.000000) scale(-1, 1) translate(-110.000000, -97.000000) translate(104.000000, 87.000000)">
                <mask id="mask-2" fill="white">
                    <use xlink:href="#path-1"></use>
                </mask>
                <use id="Shape" fill="#FAFAFA" xlink:href="#path-1"></use>
                <mask id="mask-4" fill="white">
                    <use xlink:href="#path-3"></use>
                </mask>
                <use id="Shape" fill="#FAFAFA" xlink:href="#path-3"></use>
            </g>
        </g>
    </g>
</svg>