<?xml version="1.0" encoding="UTF-8"?>
<svg width="65px" height="64px" viewBox="0 0 65 64" version="1.1" xmlns="http://www.w3.org/2000/svg" xmlns:xlink="http://www.w3.org/1999/xlink">
    <!-- Generator: Sketch 63.1 (92452) - https://sketch.com -->
    <title>connection</title>
    <desc>Created with Sketch.</desc>
    <g id="Main" stroke="none" stroke-width="1" fill="none" fill-rule="evenodd">
        <g id="Main-v.1-Light" transform="translate(-50.000000, -1421.000000)" fill="#EB5757" fill-rule="nonzero">
            <g id="connection" transform="translate(50.000000, 1421.000000)">
                <path d="M44.8201463,59.6429752 C44.5295353,59.0479339 43.8162173,58.7966942 43.2217857,59.0876033 C39.8005013,60.7404959 36.1150251,61.5867769 32.2842433,61.5867769 C26.4852324,61.5867769 20.8975749,59.5900826 16.4195231,55.953719 C18.0310933,54.2479339 19.0218128,51.9471074 19.0218128,49.4214876 C19.0218128,44.1719008 14.7551145,39.9008264 9.51090638,39.9008264 C4.26669828,39.9008264 -3.75439191e-15,44.1719008 -3.75439191e-15,49.4214876 C-3.75439191e-15,54.6710744 4.26669828,58.9421488 9.51090638,58.9421488 C11.3470397,58.9421488 13.0774963,58.4132231 14.5305514,57.5008264 C19.4973581,61.692562 25.7587048,63.9801653 32.2842433,63.9801653 C36.4848936,63.9801653 40.5138193,63.0545455 44.2653434,61.2429752 C44.8597751,60.9520661 45.1107573,60.2380165 44.8201463,59.6429752 Z M2.39093619,49.4082645 C2.39093619,45.4809917 5.5876575,42.2809917 9.51090638,42.2809917 C13.4341553,42.2809917 16.6308766,45.4809917 16.6308766,49.4082645 C16.6308766,53.3355372 13.4341553,56.5355372 9.51090638,56.5355372 C5.5876575,56.5355372 2.39093619,53.3355372 2.39093619,49.4082645 Z" id="Shape"></path>
                <path d="M4.76866278,35.1008264 C4.7422436,35.7619835 5.25741769,36.3173554 5.9311069,36.3438017 C5.94431649,36.3438017 5.95752608,36.3438017 5.97073567,36.3438017 C6.61800569,36.3438017 7.14638938,35.8280992 7.17280856,35.1801653 C7.46341959,26.5983471 12.0207289,18.8363636 19.3520526,14.4066116 C20.5012871,13.7190083 21.70336,13.1107438 22.9318521,12.6082645 C24.2131825,16.3504132 27.7665628,19.061157 31.9275843,19.061157 C37.1717924,19.061157 41.4384907,14.7900826 41.4384907,9.54049587 C41.4384907,4.29090909 37.1717924,0.0198347107 31.9275843,0.0198347107 C26.6833762,0.0198347107 22.416678,4.29090909 22.416678,9.54049587 C22.416678,9.7785124 22.4298875,10.0033058 22.4430971,10.2280992 C20.9504132,10.8099174 19.4841485,11.5239669 18.1103509,12.3570248 C10.0789188,17.1966942 5.085693,25.6991736 4.76866278,35.1008264 Z M31.9407939,2.41322314 C35.8640428,2.41322314 39.0607641,5.61322314 39.0607641,9.54049587 C39.0607641,13.4677686 35.8640428,16.6545455 31.9407939,16.6545455 C28.017545,16.6545455 24.8208237,13.4545455 24.8208237,9.52727273 C24.8208237,5.6 28.0043355,2.41322314 31.9407939,2.41322314 Z" id="Shape"></path>
                <path d="M55.2160954,39.8876033 C49.9718873,39.8876033 45.705189,44.1586777 45.705189,49.4082645 C45.705189,54.6578512 49.9718873,58.9289256 55.2160954,58.9289256 C60.4603035,58.9289256 64.7270018,54.6578512 64.7270018,49.4082645 C64.7270018,45.7190083 62.613467,42.5057851 59.535632,40.9322314 C59.7998239,39.3719008 59.9451294,37.785124 59.9451294,36.1983471 C59.9451294,26.8099174 55.2425146,18.1487603 47.3695976,13.0181818 C46.8147947,12.661157 46.0750576,12.8198347 45.7183986,13.3752066 C45.3617396,13.9305785 45.5202547,14.6710744 46.0750576,15.0280992 C53.2742853,19.7090909 57.5674028,27.6165289 57.5674028,36.1983471 C57.5674028,37.507438 57.4617261,38.8165289 57.2635822,40.1123967 C56.6031026,39.9669421 55.9162038,39.8876033 55.2160954,39.8876033 Z M62.3360656,49.4082645 C62.3360656,53.3355372 59.1393443,56.5355372 55.2160954,56.5355372 C51.2928465,56.5355372 48.0961252,53.3355372 48.0961252,49.4082645 C48.0961252,45.4809917 51.2928465,42.2809917 55.2160954,42.2809917 C59.1393443,42.2809917 62.3360656,45.4809917 62.3360656,49.4082645 Z" id="Shape"></path>
            </g>
        </g>
    </g>
</svg>