<?xml version="1.0" encoding="UTF-8"?>
<svg width="178px" height="50px" viewBox="0 0 178 50" version="1.1" xmlns="http://www.w3.org/2000/svg" xmlns:xlink="http://www.w3.org/1999/xlink">
    <!-- Generator: Sketch 59.1 (86144) - https://sketch.com -->
    <title>2.1</title>
    <desc>Created with Sketch.</desc>
    <g id="Main" stroke="none" stroke-width="1"  fill-rule="evenodd">
        <g id="Main-v.1-Light" transform="translate(-50.000000, -30.000000)">
            <g id="2.1" transform="translate(50.000000, 30.000000)">
                <path d="M5.50075259,26.5578271 L5.50075259,15.1042976 L8.66504586,15.1042976 L8.66504586,26.5578271 L14.1652752,26.5578271 L14.1652752,3.9012161e-07 L8.66504586,3.9012161e-07 L8.66504586,10.285366 L5.50075259,10.285366 L5.50075259,3.9012161e-07 L0,3.9012161e-07 L0,26.5578271 L5.50075259,26.5578271 Z M21.9789393,22.6620722 L25.1526517,22.6620722 L25.6890169,26.5578271 L30.4262994,26.5578271 L26.6241239,4.4266458 L20.5378175,4.4266458 L16.7361653,26.5578271 L21.5037982,26.5578271 L21.9789393,22.6620722 Z M23.6806562,8.14236839 L24.6466369,18.616461 L22.4540804,18.616461 L23.6189087,8.14236839 L23.6801329,8.14236839 L23.6806562,8.14236839 Z M38.8590075,26.5578271 L40.8056209,9.65576455 L40.866845,9.65576455 L42.8139817,26.5578271 L48.5936442,26.5578271 L52.0431268,4.4266458 L47.3058443,4.4266458 L45.5120296,21.7332694 L45.4508055,21.7332694 L43.4100012,4.4266458 L38.2588017,4.4266458 L36.2823612,21.7030936 L36.2221837,21.7030936 L34.3671449,4.4266458 L29.6298624,4.4266458 L33.079345,26.5578271 L38.8590075,26.5578271 Z M54.2513817,4.4266458 L54.2513817,26.5578271 L58.8353422,26.5578271 L58.8353422,15.6346767 L58.8965663,15.6346767 L62.5145461,26.5578271 L67.3439264,26.5578271 L63.3580786,15.25978 L67.2518286,4.42613435 L62.4224483,4.42613435 L58.8965663,14.9002269 L58.8358655,14.9002269 L58.8358655,4.4266458 L54.251905,4.4266458 L54.2513817,4.4266458 Z M74.1821907,4.4266458 L69.5982302,4.4266458 L69.5982302,26.5578271 L74.1821907,26.5578271 L74.1821907,4.4266458 Z M87.4437559,20.0260317 L83.5500059,4.4266458 L77.7415628,4.4266458 L77.7415628,26.5578271 L82.0801035,26.5578271 L82.0801035,11.0944882 L82.1418509,11.0944882 L86.0947319,26.5578271 L91.8435207,26.5578271 L91.8435207,4.4266458 L87.50498,4.4266458 L87.50498,20.0260317 L87.4437559,20.0260317 Z M100.859166,12.9986362 L100.859166,17.0145831 L102.20819,17.0145831 L102.20819,21.7225289 C102.242063,22.0641763 102.131241,22.4044695 101.901546,22.664118 C101.282771,23.0431405 100.496786,23.0431405 99.8780103,22.664118 C99.6480114,22.4040283 99.5371769,22.0631424 99.5713664,21.7209945 L99.5713664,9.2194932 C99.5350263,8.88179333 99.6464035,8.54481128 99.8780103,8.29171333 C100.502401,7.93228804 101.277156,7.93228804 101.901546,8.29171333 C102.132974,8.54532032 102.244303,8.88252874 102.20819,9.22051611 L102.20819,10.5697351 L106.792151,10.5697351 L106.792151,9.18880588 C106.792151,7.33085935 106.334627,6.00226903 105.419579,5.20303491 C104.504531,4.4038008 102.948636,4.00418375 100.751893,4.00418375 C99.8478745,3.98555987 98.9454244,4.08637562 98.0690205,4.30389654 C97.4148383,4.46623546 96.8100778,4.77967153 96.3055562,5.21786712 C95.8359754,5.66088939 95.4932051,6.2163216 95.3113182,6.82895124 C95.0823313,7.5950885 94.973819,8.39079409 94.9894991,9.18880588 L94.9894991,22.6318964 C94.9129892,23.8243917 95.3523294,24.9934846 96.2003763,25.8540646 C97.0802014,26.6400821 98.2447602,27.0501196 99.4353128,26.9930755 C100.196776,27.0367973 100.95569,26.8728275 101.627346,26.5194679 C102.242914,26.0958683 102.760033,25.550003 103.144867,24.91759 L103.804204,26.55885 L106.793721,26.55885 L106.793721,12.9971019 L100.859166,12.9971019 L100.859166,12.9986362 Z M123.778969,4.85626824 C124.116803,4.83797179 124.45347,4.90862296 124.753845,5.06085035 C125.015928,5.24059309 125.194634,5.51435941 125.250964,5.82240725 C125.368133,6.39461501 125.417472,6.97811028 125.398007,7.56135519 C125.418274,8.15648057 125.36894,8.75192148 125.250964,9.336105 C125.197727,9.63828477 125.026178,9.90832125 124.772683,10.0889672 C124.46491,10.2393601 124.121841,10.3073054 123.778445,10.2858774 L122.380233,10.2858774 L122.380233,4.85473387 L123.778445,4.85473387 L123.778969,4.85626824 Z M125.066769,26.5578271 C127.151529,26.5578271 128.66905,26.1113266 129.619332,25.2183257 C130.569614,24.3253248 131.04493,22.967752 131.045279,21.1456073 L131.045279,17.135798 C131.113538,16.0364696 130.82373,14.9442641 130.217445,14.0159208 C129.569056,13.2259221 128.618612,12.7291092 127.586377,12.6406175 L127.586377,12.5685023 C128.657438,12.2995332 129.580436,11.6358536 130.161977,10.7165228 C130.668819,9.80109087 130.922593,8.77227376 130.898236,7.7316698 L130.898236,5.41222012 C130.898236,3.59041643 130.422921,2.23284364 129.47229,1.33950176 C128.521658,0.446159876 126.997858,-0.000340580445 124.900888,1.94601677e-07 L116.880527,1.94601677e-07 L116.880527,26.5578271 L125.066769,26.5578271 Z M123.670649,15.1042976 C124.086165,15.0779802 124.502158,15.148082 124.884666,15.3088797 C125.187136,15.5176936 125.378898,15.8471916 125.407949,16.2080181 C125.519017,16.9370183 125.565239,17.6740549 125.546096,18.410856 C125.552649,19.1301568 125.497335,19.8487234 125.380738,20.5589681 C125.347652,20.9294964 125.165701,21.2721151 124.874724,21.5118093 C124.501095,21.6898954 124.085644,21.7674 123.671172,21.7363382 L122.383373,21.7363382 L122.383373,15.1042976 L123.670649,15.1042976 Z M137.912847,17.0130487 L139.078198,17.0130487 C140.059529,17.0130487 140.55002,17.3826604 140.549671,18.1218837 L140.549671,25.6740323 C140.569563,25.9878403 140.669786,26.2917374 140.841139,26.5578271 L145.45545,26.5578271 C145.339998,26.4408136 145.258067,26.2961769 145.21788,26.1384337 C145.175309,25.9336452 145.152187,25.7254507 145.148806,25.5165041 C145.138341,25.2519113 145.133282,24.7898967 145.133631,24.1304603 L145.133631,19.3503993 C145.133631,17.9418515 144.913852,16.895414 144.474294,16.2110868 C144.002177,15.5066408 143.230811,15.0472203 142.373836,14.9600672 L142.373836,14.9002269 C143.197654,14.8314336 143.946561,14.4053841 144.41464,13.7392235 C144.81912,13.0934408 145.02645,12.3481671 145.01223,11.5911113 L145.01223,8.93665843 C145.01223,7.22839781 144.565171,6.04966388 143.671055,5.40045665 C142.776938,4.75124942 141.287326,4.42732775 139.202217,4.42868734 L133.326793,4.42868734 L133.326793,26.5578271 L137.910754,26.5578271 L137.910754,17.0130487 L137.912847,17.0130487 Z M139.078198,8.47174558 C139.496087,8.41305252 139.913441,8.58190811 140.166627,8.91210858 C140.389504,9.49077604 140.478846,10.1104192 140.428269,10.7267519 C140.4854,11.3524909 140.38814,11.9824959 140.14465,12.5638992 C139.892323,12.8815722 139.487646,13.046117 139.079245,12.9971019 L137.913893,12.9971019 L137.913893,8.47225704 L139.079245,8.47225704 L139.078198,8.47174558 Z M151.846308,8.29171333 C152.470728,7.93239749 153.245423,7.93239749 153.869844,8.29171333 C154.101785,8.54468793 154.213708,8.88159644 154.178057,9.2194932 L154.178057,21.7189487 C154.211998,22.0610708 154.101194,22.401863 153.871413,22.6620722 C153.25271,23.0413406 152.466581,23.0413406 151.847877,22.6620722 C151.617878,22.4019825 151.507044,22.0610966 151.541234,21.7189487 L151.541234,9.2194932 C151.504621,8.88218819 151.615408,8.54545139 151.846308,8.29222478 L151.846308,8.29171333 Z M147.316245,24.3176529 C147.512922,24.9380995 147.88171,25.4931181 148.38165,25.9210652 C148.913608,26.3342381 149.539134,26.616781 150.205815,26.7450197 C151.077892,26.9220331 151.967226,27.0048743 152.857814,26.9920526 C154.95304,26.9920526 156.460619,26.6224409 157.38055,25.8832175 C158.300482,25.1439942 158.760448,23.7755104 158.760448,21.777766 L158.760448,9.19136316 C158.760448,7.20350698 158.303099,5.84252449 157.3884,5.10841569 C156.473701,4.37430688 154.963505,4.00725248 152.857814,4.00725248 C151.718982,3.97211129 150.58205,4.12142786 149.493103,4.44914984 C148.672533,4.71669291 147.988907,5.28284532 147.584166,6.0300581 C147.116016,7.0187574 146.900528,8.10378829 146.956226,9.19187461 L146.956226,21.777766 C146.933702,22.6379202 147.055314,23.4958817 147.316245,24.3176529 L147.316245,24.3176529 Z M172.005791,9.34121955 C172.025086,8.50087236 171.903471,7.66310733 171.645773,6.86117292 C171.440592,6.23137242 171.076755,5.66207432 170.587694,5.20559219 C170.077786,4.76279001 169.464554,4.44896769 168.801729,4.29162161 C167.959372,4.08841889 167.093643,3.99266283 166.226129,4.00674102 C164.049271,4.00674102 162.521459,4.44130752 161.642692,5.31044052 C160.763925,6.17957352 160.324367,7.6286968 160.324018,9.65781037 C160.258324,11.0442181 160.587273,12.4212741 161.2743,13.6359095 C162.031243,14.769305 162.989247,15.7614266 164.103169,16.5655253 C165.045312,17.2494549 165.934358,18.0006193 166.763017,18.8128598 C167.319261,19.4600897 167.599217,20.2917814 167.544802,21.1353782 C167.585131,21.6224719 167.475809,22.1102463 167.230833,22.5362542 C166.99125,22.8350671 166.613656,22.9956527 166.226652,22.9633194 C165.836372,22.9950388 165.456895,22.828047 165.222472,22.521422 C164.981119,22.0994588 164.87194,21.6174815 164.908502,21.1353782 L164.908502,19.5902718 L160.324541,19.5902718 L160.324541,21.6432533 C160.302132,22.5065293 160.41058,23.3682932 160.646361,24.2005297 C160.831425,24.8278436 161.186309,25.3946985 161.673565,25.8412782 C162.187145,26.2828289 162.807099,26.5895831 163.475229,26.7327448 C164.3686,26.9241234 165.281892,27.0121867 166.196302,26.9951213 C167.159071,27.0169837 168.120547,26.9137907 169.055521,26.6882482 C169.737363,26.5222529 170.360044,26.177812 170.856662,25.6919333 C171.339241,25.1712518 171.674695,24.5366619 171.829968,23.8506943 C172.049573,22.8970403 172.150079,21.9208816 172.129286,20.9435825 C172.194534,19.5528827 171.859898,18.1721263 171.163306,16.9578115 C170.558585,15.9922502 169.785532,15.1376569 168.879175,14.4327568 C168.000059,13.7583178 167.118501,13.0366544 166.234501,12.2677666 C165.455449,11.6963881 164.971007,10.8205953 164.908502,9.87057576 C164.866154,9.37701844 164.972764,8.88215425 165.215146,8.44719573 C165.458558,8.1498518 165.838742,7.99221905 166.226652,8.0278024 C167.105768,8.0278024 167.545326,8.64154873 167.545326,9.8690414 L167.545326,11.0965341 L172.006315,11.0965341 L172.006315,9.34121955 L172.005791,9.34121955 Z M173.922054,26.5578271 L178,26.5578271 L178,22.5418802 L173.922054,22.5418802 L173.922054,26.5578271 Z" id="hawking_bros."></path>
                <path d="M2.75078128,47.4659967 C3.42543569,47.5105705 4.08981387,47.2844408 4.59408832,46.8386035 C5.05840997,46.3240264 5.29072597,45.6443323 5.23740773,44.9564238 C5.25146142,44.4654466 5.12688261,43.9803208 4.87767402,43.5555748 C4.64763118,43.1725742 4.26379881,42.9045563 3.82210503,42.8185047 L3.82210503,42.7997921 C4.17063567,42.664243 4.4654322,42.4206017 4.66235896,42.1053452 C4.86708893,41.7673174 4.97053807,41.3786579 4.9606491,40.984666 C5.01625291,40.3180359 4.77717854,39.66028 4.30525104,39.1814953 C3.77467363,38.7603904 3.10374853,38.5517081 2.42518289,38.5967253 L0,38.5967253 L0,47.4659967 L2.75078128,47.4659967 Z M2.86158977,43.3299835 C3.20888768,43.3064188 3.54151776,43.4722311 3.72915194,43.7624534 C3.93309353,44.1289932 4.02898399,44.5448374 4.00591058,44.9626614 C4.03369544,45.3749139 3.92109238,45.7844904 3.68608893,46.1259638 C3.45754297,46.4007165 3.1096343,46.5501758 2.75078128,46.5277657 L1.23674874,46.5277657 L1.23674874,43.3299835 L2.86158977,43.3299835 L2.86158977,43.3299835 Z M1.23674874,39.5474313 L2.42465773,39.5474313 C2.78861552,39.518917 3.1470375,39.6489393 3.40617934,39.9034913 C3.64699714,40.2204422 3.76192023,40.6138488 3.72915194,41.0090964 C3.7547413,41.3825005 3.65060458,41.753344 3.43401275,42.060123 C3.22603262,42.3070955 2.9158998,42.4470948 2.59113304,42.4406134 L1.23674874,42.4406134 L1.23674874,39.5474313 L1.23674874,39.5474313 Z M10.2321921,47.3807502 C10.5425553,47.2595873 10.8182342,47.0650672 11.0351598,46.8141731 L10.6843538,46.0225245 C10.5172304,46.2208764 10.3082146,46.3805618 10.0720187,46.4903405 C9.77254596,46.6118149 9.45010114,46.6678438 9.12673308,46.6545959 C8.72572515,46.6715297 8.35028504,46.4598759 8.16044107,46.1098501 C7.92941486,45.6716668 7.81910536,45.180971 7.84061942,44.6871697 L7.84061942,44.4272719 L11.2068867,44.4272719 L11.2068867,43.5748072 C11.2489036,42.8420625 11.0478982,42.1157941 10.6344637,41.5065408 C10.2345614,40.9960177 9.60536158,40.714407 8.95395587,40.7543966 C8.28528963,40.7403316 7.65160039,41.0494797 7.25559262,41.5829507 C6.79874899,42.2037497 6.56874512,42.9598501 6.60334552,43.7271073 L6.60334552,44.6892489 C6.56772827,45.4434811 6.80080052,46.1861474 7.26189453,46.7876635 C7.69520844,47.3196321 8.35764191,47.6168042 9.04743412,47.5886685 C9.45234227,47.5973758 9.85499076,47.5267133 10.2321921,47.3807502 L10.2321921,47.3807502 Z M9.73381654,42.1422507 C9.91881055,42.4974598 10.0067938,42.8943583 9.98904367,43.2935979 L9.98904367,43.5430997 L7.84114371,43.5430997 C7.8407878,43.0816774 7.95035978,42.6266735 8.16096623,42.2150221 C8.30277058,41.9063159 8.61240811,41.7068637 8.95500618,41.7035433 C9.27830394,41.6891282 9.5812313,41.8597686 9.73381654,42.1422507 L9.73381654,42.1422507 Z M14.2617349,41.4540414 C13.993882,41.5751523 13.7483936,41.7397752 13.5354404,41.9410898 L13.5233617,41.9291345 C13.5857963,41.437106 13.773155,40.9687539 14.0679513,40.56779 C14.3067677,40.261989 14.6485281,40.0511696 15.0310924,39.9736637 C15.5547021,39.9096353 16.0549769,39.7215186 16.4894581,39.4252794 C16.8520718,39.0428526 17.0236067,38.5203552 16.9573745,38 L15.9616736,38 C15.97986,38.2375005 15.8822795,38.4693022 15.6990942,38.6237547 C15.4475564,38.7932344 15.1638221,38.9103086 14.8651422,38.9678593 C14.0853345,39.1641095 13.4371875,39.6991938 13.1021845,40.4232868 C12.6203163,41.4571671 12.3976477,42.5908801 12.4530883,43.7281469 L12.4530883,44.4101187 C12.4115767,45.2303191 12.6380748,46.0419419 13.0990335,46.7247683 C13.5390309,47.2735893 14.2075361,47.5942835 14.9153825,47.5961122 C15.6232289,47.5979252 16.2934091,47.2806745 16.7362827,46.7341246 C17.1968716,46.0591052 17.4235534,45.2543033 17.3822279,44.4407866 L17.3822279,44.2760114 C17.4200591,43.5070287 17.2110446,42.7459218 16.7851224,42.1017067 C16.4037517,41.5613449 15.769957,41.2512126 15.1046146,41.2793901 C14.8142221,41.2768099 14.5266971,41.3363874 14.2617349,41.4540414 Z M15.8492896,42.7909556 C16.0683452,43.2542417 16.1717273,43.7628428 16.1507307,44.2739323 L16.1507307,44.4387074 C16.1728272,44.989333 16.0698166,45.5378491 15.8492896,46.0438361 C15.689453,46.4142996 15.3220059,46.6548955 14.9150204,46.6555755 C14.5080348,46.6562526 14.139771,46.4168833 13.9786743,46.0469549 C13.7619091,45.5389056 13.6611314,44.9897562 13.6835351,44.4387074 L13.6835351,44.2739323 C13.6635519,43.7645283 13.7648307,43.257608 13.9791995,42.7940743 C14.1421842,42.4336404 14.5100534,42.2073559 14.9087304,42.2222992 C15.3091706,42.2077228 15.6795745,42.4316667 15.8492896,42.7909556 L15.8492896,42.7909556 Z M21.1738737,43.1657281 L18.5480802,43.1657281 L18.5480802,44.1013601 L21.1738737,44.1013601 L21.1738737,43.1657281 Z M23.9509129,45.3036472 L23.9325324,45.2974097 L23.9325324,40.8749892 L22.7015604,40.8749892 L22.7015604,47.4659967 L23.9325324,47.4659967 L25.9633211,43.0435762 L25.9817016,43.0477346 L25.9817016,47.4659967 L27.2184504,47.4659967 L27.2184504,40.8749892 L25.9817016,40.8749892 L23.9509129,45.3036472 Z M33.4788672,40.8749892 L32.2415933,40.8749892 L32.2415933,43.7135927 L30.2045027,43.7135927 L30.2045027,40.8749892 L28.9735307,40.8749892 L28.9735307,47.4659967 L30.2045027,47.4659967 L30.2045027,44.6518236 L32.2415933,44.6518236 L32.2415933,47.4659967 L33.4783421,47.4659967 L33.4783421,40.8749892 L33.4788672,40.8749892 Z M39.4562236,40.8749892 L34.7723331,40.8749892 L34.7723331,41.8194577 L36.4833002,41.8194577 L36.4833002,47.4659967 L37.7200489,47.4659967 L37.7200489,41.8194577 L39.4530726,41.8194577 L39.4530726,40.8749892 L39.4562236,40.8749892 Z M43.6574932,47.3807502 C43.9679487,47.2597558 44.243666,47.0652086 44.4604609,46.8141731 L44.1096548,46.0225245 C43.9426506,46.2209989 43.7336051,46.380707 43.4973198,46.4903405 C43.1978701,46.611894 42.8754077,46.6679259 42.5520341,46.6545959 C42.1509952,46.6716564 41.7754918,46.4599669 41.5857421,46.1098501 C41.354252,45.6718181 41.2437437,45.1810437 41.2653953,44.6871697 L41.2653953,44.4272719 L44.6353387,44.4272719 L44.6353387,43.5748072 C44.6772008,42.8420787 44.4762086,42.1158583 44.0629157,41.5065408 C43.6629548,40.9960913 43.0337965,40.7144992 42.3824079,40.7543966 C41.7137218,40.7402431 41.0799936,41.0494103 40.6840446,41.5829507 C40.2272389,42.2037683 39.9972392,42.9598553 40.0317975,43.7271073 L40.0317975,44.6892489 C39.9961803,45.4434811 40.2292525,46.1861474 40.6903465,46.7876635 C41.1236604,47.3196321 41.7860939,47.6168042 42.4758861,47.5886685 C42.8795588,47.5968543 43.2809027,47.5262015 43.656968,47.3807502 L43.6574932,47.3807502 Z M43.1591176,42.1422507 C43.3440885,42.4974681 43.4320704,42.8943604 43.4143447,43.2935979 L43.4143447,43.5430997 L41.2664448,43.5430997 C41.2660934,43.081617 41.3758545,42.6265749 41.5867924,42.2150221 C41.728414,41.9063977 42.0378607,41.7069364 42.3803072,41.7035433 C42.7034192,41.6893323 43.0060902,41.8599433 43.1585924,42.1422507 L43.1591176,42.1422507 Z M49.6070161,40.8749892 L46.0679716,40.8749892 L46.0679716,47.4659967 L47.2989436,47.4659967 L47.2989436,41.831413 L49.6070161,41.831413 L49.6070161,40.8749892 L49.6070161,40.8749892 Z M55.4730388,43.908516 C55.5141619,43.1054492 55.3277207,42.3069883 54.9347512,41.6032227 C54.6164223,41.0591292 54.0214601,40.7325251 53.3865833,40.753357 C53.0930684,40.7454993 52.8032174,40.8193381 52.5500055,40.9664732 C52.3037633,41.1209851 52.0989096,41.3321283 51.9529001,41.5819111 L51.9402962,41.5756736 L51.8725508,40.8749892 L50.7649911,40.8749892 L50.7649911,50 L51.9959631,50 L51.9959631,46.8874643 L52.0143436,46.8812267 C52.1610421,47.1005398 52.3592585,47.2813932 52.5920182,47.4082994 C52.8394207,47.5329457 53.1143144,47.5945805 53.3918349,47.5876289 C54.0063975,47.6147927 54.5907978,47.3228184 54.9337009,46.8172919 C55.3240884,46.1880834 55.5118304,45.456206 55.4719885,44.7188772 L55.4719885,43.908516 L55.4730388,43.908516 Z M54.2420668,44.7188772 C54.2649923,45.2060724 54.1667115,45.6913871 53.9558553,46.1322013 C53.7871664,46.4686069 53.4331344,46.674122 53.0541579,46.6556355 C52.8217455,46.6652009 52.5929235,46.5964857 52.4050617,46.4607121 C52.2204305,46.3112382 52.0792464,46.1158861 51.9959631,45.8946548 L51.9959631,42.5502902 C52.0825942,42.3159226 52.2238314,42.1050728 52.4082127,41.9348523 C52.5843506,41.7858453 52.8105101,41.7075813 53.0420792,41.7154986 C53.4416839,41.7084067 53.8036925,41.9477647 53.9500786,42.3158624 C54.1650293,42.8188938 54.2647468,43.362804 54.2420668,43.908516 L54.2420668,44.7188772 L54.2420668,44.7188772 Z M61.4246624,47.4659967 C61.3605307,47.2329562 61.3122826,46.9959159 61.2802438,46.7564758 C61.2488517,46.5151588 61.2334142,46.2720704 61.2340298,46.028762 L61.2340298,42.9713246 C61.2776533,42.3650593 61.0689487,41.7674994 60.6563552,41.3173352 C60.2455435,40.9309886 59.6931438,40.7274563 59.1270931,40.7538768 C58.5315735,40.7266271 57.9501826,40.9386264 57.5148559,41.3417656 C57.1222299,41.7021424 56.9010951,42.2095208 56.9056718,42.7394958 L58.1424205,42.7457333 C58.1299049,42.469197 58.214729,42.196931 58.382418,41.9753963 C58.5438284,41.7776704 58.7907192,41.6678393 59.047269,41.6796327 C59.3239035,41.6648579 59.5892409,41.7899094 59.7520319,42.011782 C59.9310117,42.2945938 60.0160384,42.6257743 59.9951804,42.9588495 L59.9951804,43.6345837 L59.1396969,43.6345837 C58.5119757,43.5926765 57.8906728,43.7812537 57.3945945,44.1642554 C56.977751,44.5475076 56.7555199,45.0949335 56.7885614,45.6571082 C56.7586369,46.1670838 56.9173128,46.6704004 57.2349463,47.0730313 C57.5574359,47.4269761 58.0251726,47.6163688 58.5058303,47.5876289 C58.8124463,47.590379 59.1120168,47.4966385 59.3613139,47.3199342 C59.6199799,47.1364037 59.8377118,46.9021401 60.0009572,46.6317249 L60.013561,46.6374426 C60.02628,46.7715677 60.0467952,46.9048562 60.0750045,47.0366456 C60.1033631,47.172832 60.1385487,47.3157758 60.1800363,47.4659967 L61.4230869,47.4659967 L61.4246624,47.4659967 Z M58.2211943,46.3697479 C58.0798846,46.1569922 58.0108901,45.9051393 58.0242598,45.6508707 C58.0131933,45.3311126 58.113088,45.0172456 58.3073204,44.7615005 C58.5050515,44.5174554 58.8100103,44.3833885 59.1255176,44.401802 L59.9999068,44.401802 L59.9999068,45.7787404 C59.8984208,46.0235589 59.7324896,46.2369768 59.5193866,46.3967773 C59.3116626,46.5554478 59.0559909,46.6402286 58.7936173,46.6374426 C58.5684498,46.6506247 58.3519068,46.5498203 58.2185685,46.3697479 L58.2211943,46.3697479 Z M67.0722191,40.8749892 L62.3857028,40.8749892 L62.3857028,41.8194577 L64.0966699,41.8194577 L64.0966699,47.4659967 L65.3334186,47.4659967 L65.3334186,41.8194577 L67.0664423,41.8194577 L67.0664423,40.8749892 L67.0722191,40.8749892 Z M67.8599571,44.5967253 C67.8216779,45.3711247 68.0495502,46.1355229 68.5064275,46.7653123 C68.9639818,47.287161 69.6275566,47.5871515 70.325647,47.5877506 C71.0237374,47.5883478 71.687836,47.2894949 72.1463025,46.7684311 C72.6018064,46.1369379 72.8284939,45.3716904 72.7896219,44.5967253 L72.7896219,43.7562159 C72.8260996,42.9812241 72.5984263,42.2165777 72.1431515,41.5850299 C71.6894568,41.0574624 71.0247462,40.7534887 70.3247895,40.7534887 C69.6248328,40.7534887 68.9601222,41.0574624 68.5064275,41.5850299 C68.0511528,42.2165777 67.8234794,42.9812241 67.8599571,43.7562159 L67.8599571,44.5967253 L67.8599571,44.5967253 Z M69.097231,43.7562159 C69.0765794,43.246131 69.1765639,42.7383209 69.3892193,42.2732392 C69.5524058,41.9115195 69.9220188,41.6849304 70.3219011,41.7014641 C70.7216891,41.6877354 71.0906118,41.9132663 71.2572088,42.2732392 C71.4763429,42.7364997 71.5797289,43.24512 71.5586499,43.7562159 L71.5586499,44.5967253 C71.5799125,45.1096847 71.477672,45.6202991 71.2603597,46.0864593 C71.0825503,46.4350647 70.7218731,46.6551601 70.3273326,46.6558204 C69.9327922,46.6564776 69.5713669,46.4375878 69.3923702,46.0895781 C69.1766069,45.6219029 69.0754826,45.1104028 69.097231,44.5967253 L69.097231,43.7562159 L69.097231,43.7562159 Z M78.9943719,43.908516 C79.0356723,43.1053702 78.8490273,42.3068156 78.4555591,41.6032227 C78.1375732,41.0590423 77.5426922,40.732372 76.9079164,40.753357 C76.6142434,40.7455691 76.3242429,40.8193996 76.0708134,40.9664732 C75.8248423,41.1211462 75.6201946,41.3322628 75.4742332,41.5819111 L75.4616293,41.5756736 L75.3938839,40.8749892 L74.2863242,40.8749892 L74.2863242,50 L75.5146704,50 L75.5146704,46.8874643 L75.5330509,46.8812267 C75.6797014,47.1005803 75.8779289,47.2814439 76.1107255,47.4082994 C76.3583307,47.5329057 76.6333833,47.5945357 76.9110674,47.5876289 C77.5254912,47.6148142 78.109745,47.3228137 78.4524082,46.8172919 C78.8432584,46.1882582 79.0312071,45.4562893 78.991221,44.7188772 L78.991221,43.908516 L78.9943719,43.908516 Z M77.7633999,44.7188772 C77.7860675,45.206053 77.6877991,45.6913066 77.4771884,46.1322013 C77.3083953,46.4685107 76.9544335,46.673985 76.575491,46.6556355 C76.3430786,46.6652009 76.1142566,46.5964857 75.9263948,46.4607121 C75.7417636,46.3112382 75.6005795,46.1158861 75.5172962,45.8946548 L75.5172962,42.5502902 C75.6037314,42.3158246 75.7449971,42.1049323 75.9295458,41.9348523 C76.1056319,41.785756 76.3318276,41.7074794 76.5634123,41.7154986 C76.9629614,41.7081706 77.324941,41.9476479 77.4708865,42.3158624 C77.6860338,42.8188485 77.7859316,43.3627639 77.7633999,43.908516 L77.7633999,44.7188772 L77.7633999,44.7188772 Z" id="Веб-интегратор"></path>
            </g>
        </g>
    </g>
</svg>